<?xml version="1.0" encoding="utf-8"?>
<!-- Generator: Adobe Illustrator 16.0.0, SVG Export Plug-In . SVG Version: 6.00 Build 0)  -->
<!DOCTYPE svg PUBLIC "-//W3C//DTD SVG 1.1//EN" "http://www.w3.org/Graphics/SVG/1.1/DTD/svg11.dtd">
<svg version="1.1"
	 id="svg2" xmlns:dc="http://purl.org/dc/elements/1.1/" xmlns:cc="http://creativecommons.org/ns#" xmlns:rdf="http://www.w3.org/1999/02/22-rdf-syntax-ns#" xmlns:svg="http://www.w3.org/2000/svg"
	 xmlns="http://www.w3.org/2000/svg" xmlns:xlink="http://www.w3.org/1999/xlink" x="0px" y="0px" width="140.375px" height="50px"
	 viewBox="0 0 140.375 50" enable-background="new 0 0 140.375 50" xml:space="preserve">
<g id="layer1" transform="translate(-187.91723,-175.49027)">
	<path id="path2990" d="M219.547,205.911h-13.999l6.931-19.763h0.137L219.547,205.911z M188.667,224.438h9.95l4.186-10.979h19.419
		l4.117,10.979h10.637l-18.802-47.897h-10.843L188.667,224.438z"/>
	<path id="path2992" d="M269.137,205.911h-13.999l6.931-19.763h0.137L269.137,205.911z M238.258,224.438h9.95l4.187-10.979h19.419
		l4.117,10.979h10.636l-18.802-47.897h-10.842L238.258,224.438z"/>
	<path id="path2994" d="M327.237,215.725c-1.192,0.593-2.753,1.071-4.684,1.432c-1.93,0.362-3.868,0.549-5.816,0.558
		c-5.15-0.103-9.139-1.732-11.966-4.889c-2.826-3.157-4.258-7.223-4.297-12.198c0.051-5.016,1.492-9.136,4.323-12.36
		c2.831-3.224,6.742-4.891,11.734-5c1.706-0.023,3.407,0.143,5.104,0.498c1.697,0.354,3.449,1.035,5.258,2.042l0.686-8.098
		c-1.786-0.683-3.636-1.187-5.55-1.509c-1.915-0.323-3.678-0.483-5.293-0.48c-8.21,0.041-14.623,2.258-19.24,6.647
		c-4.616,4.391-6.963,10.707-7.042,18.948c0.126,8.083,2.568,14.1,7.326,18.048c4.757,3.949,11.076,5.916,18.956,5.901
		c1.827-0.011,3.663-0.161,5.507-0.445c1.844-0.287,3.646-0.641,5.404-1.065L327.237,215.725z"/>
</g>
</svg>
