<?xml version="1.0" encoding="utf-8"?>
<!-- Generator: Adobe Illustrator 16.0.0, SVG Export Plug-In . SVG Version: 6.00 Build 0)  -->
<!DOCTYPE svg PUBLIC "-//W3C//DTD SVG 1.1//EN" "http://www.w3.org/Graphics/SVG/1.1/DTD/svg11.dtd">
<svg version="1.1" id="Layer_1" xmlns="http://www.w3.org/2000/svg" xmlns:xlink="http://www.w3.org/1999/xlink" x="0px" y="0px"
	 width="27.75px" height="28px" viewBox="302.875 0 27.75 28" enable-background="new 302.875 0 27.75 28" xml:space="preserve">
<g>
	<path fill="#FFFFFF" d="M312.579,0.974c-3.356,1.148-6.215,3.659-7.808,6.837c-0.556,1.097-0.956,2.26-1.2,3.467
		c-0.607,2.992-0.185,6.185,1.193,8.912c0.896,1.777,2.185,3.363,3.741,4.6c1.474,1.17,3.185,2.045,5.007,2.525
		c2.297,0.615,4.741,0.6,7.053,0.074c2.088-0.48,4.066-1.48,5.645-2.934c1.666-1.533,2.859-3.547,3.488-5.719
		c0.689-2.361,0.777-4.888,0.348-7.318c-4.318,0-8.644,0-12.963,0c0,1.793,0,3.585,0,5.378c2.504,0,5.008,0,7.512,0
		c-0.289,1.719-1.311,3.289-2.756,4.258c-0.911,0.615-1.955,1.008-3.037,1.201c-1.081,0.186-2.207,0.207-3.289-0.008
		c-1.104-0.223-2.147-0.682-3.066-1.326c-1.467-1.029-2.585-2.533-3.155-4.229c-0.585-1.727-0.593-3.645,0-5.363
		c0.415-1.215,1.097-2.334,2-3.252c1.111-1.142,2.556-1.956,4.118-2.289c1.334-0.281,2.741-0.23,4.045,0.162
		c1.111,0.334,2.133,0.949,2.971,1.748c0.844-0.844,1.688-1.688,2.533-2.533c0.444-0.451,0.91-0.889,1.34-1.355
		c-1.281-1.186-2.792-2.141-4.437-2.749C318.897-0.033,315.564-0.055,312.579,0.974z"/>
	<g>
		<path fill="#EA4335" d="M312.579,0.974c2.978-1.029,6.318-1.007,9.281,0.082c1.645,0.607,3.147,1.556,4.437,2.748
			c-0.43,0.466-0.896,0.904-1.34,1.356c-0.845,0.845-1.689,1.688-2.533,2.533c-0.838-0.8-1.859-1.407-2.971-1.748
			c-1.304-0.393-2.711-0.452-4.045-0.163c-1.555,0.334-3,1.148-4.118,2.289c-0.903,0.911-1.585,2.037-2,3.252
			c-1.504-1.171-3.007-2.334-4.519-3.504C306.364,4.633,309.223,2.123,312.579,0.974z"/>
	</g>
	<g>
		<path fill="#FBBC05" d="M303.579,11.27c0.244-1.199,0.644-2.369,1.2-3.467c1.504,1.171,3.007,2.334,4.518,3.504
			c-0.592,1.727-0.592,3.644,0,5.363c-1.503,1.17-3.007,2.342-4.511,3.504C303.394,17.455,302.972,14.263,303.579,11.27z"/>
	</g>
	<g>
		<path fill="#4285F4" d="M317.082,11.411c4.319,0,8.645,0,12.963,0c0.43,2.423,0.334,4.949-0.348,7.32
			c-0.629,2.17-1.822,4.184-3.488,5.717c-1.46-1.133-2.919-2.266-4.379-3.398c1.445-0.971,2.467-2.541,2.756-4.26
			c-2.504,0-5.008,0-7.511,0C317.082,14.996,317.082,13.204,317.082,11.411z"/>
	</g>
	<g>
		<path fill="#34A853" d="M304.771,20.182c1.504-1.164,3.008-2.334,4.512-3.504c0.577,1.697,1.688,3.199,3.154,4.23
			c0.919,0.645,1.971,1.104,3.067,1.324c1.081,0.223,2.2,0.193,3.288,0.008c1.082-0.191,2.127-0.584,3.037-1.199
			c1.46,1.133,2.919,2.266,4.379,3.4c-1.578,1.459-3.557,2.451-5.645,2.934c-2.312,0.525-4.756,0.539-7.053-0.074
			c-1.822-0.482-3.533-1.35-5.007-2.527C306.957,23.545,305.668,21.959,304.771,20.182z"/>
	</g>
</g>
</svg>
