<?xml version="1.0" encoding="utf-8"?>
<!-- Generator: Adobe Illustrator 16.0.0, SVG Export Plug-In . SVG Version: 6.00 Build 0)  -->
<!DOCTYPE svg PUBLIC "-//W3C//DTD SVG 1.1//EN" "http://www.w3.org/Graphics/SVG/1.1/DTD/svg11.dtd">
<svg version="1.1" id="Layer_1" xmlns="http://www.w3.org/2000/svg" xmlns:xlink="http://www.w3.org/1999/xlink" x="0px" y="0px"
	 width="23.781px" height="27.5px" viewBox="0 0 23.781 27.5" enable-background="new 0 0 23.781 27.5" xml:space="preserve">
<g opacity="0.2">
	<g>
		<path d="M23.605,20.107c-0.641,1.416-0.945,2.049-1.77,3.299c-1.146,1.748-2.766,3.924-4.771,3.943
			c-1.781,0.016-2.238-1.16-4.658-1.146c-2.417,0.014-2.922,1.166-4.705,1.15c-2.005-0.019-3.539-1.983-4.688-3.73
			c-3.21-4.887-3.547-10.621-1.566-13.67c1.407-2.166,3.627-3.435,5.715-3.435c2.125,0,3.461,1.165,5.219,1.165
			c1.705,0,2.742-1.167,5.199-1.167c1.859,0,3.826,1.011,5.23,2.76C18.215,11.793,18.963,18.354,23.605,20.107L23.605,20.107z"/>
		<path d="M15.719,4.564c0.893-1.146,1.57-2.763,1.324-4.417c-1.459,0.101-3.164,1.028-4.16,2.237
			c-0.903,1.098-1.649,2.726-1.359,4.309C13.115,6.742,14.761,5.792,15.719,4.564L15.719,4.564z"/>
	</g>
	<g display="none">
		<path display="inline" d="M31.754,12.34c0,0.992-0.754,1.794-1.936,1.794c-1.133,0-1.889-0.802-1.865-1.794
			c-0.023-1.039,0.732-1.817,1.889-1.817C31,10.523,31.732,11.301,31.754,12.34z M28.049,27.094V15.551h3.588v11.543H28.049z"/>
		<path display="inline" d="M37.701,14.205h-4.271v-3.021h12.229v3.021h-4.344v12.889h-3.611V14.205H37.701z"/>
		<path display="inline" d="M57.058,23.387c0,1.512,0.047,2.739,0.094,3.707h-3.115l-0.166-1.629h-0.07
			c-0.447,0.708-1.533,1.889-3.609,1.889c-2.338,0-4.063-1.463-4.063-5.027v-6.774h3.611v6.208c0,1.678,0.543,2.69,1.795,2.69
			c0.99,0,1.559-0.685,1.793-1.251c0.096-0.213,0.117-0.495,0.117-0.778v-6.869h3.613V23.387L57.058,23.387z"/>
		<path display="inline" d="M59.937,19.232c0-1.439-0.049-2.668-0.096-3.683h3.115l0.166,1.581h0.07
			c0.473-0.73,1.65-1.841,3.563-1.841c2.361,0,4.133,1.558,4.133,4.957v6.846h-3.588v-6.397c0-1.486-0.52-2.502-1.816-2.502
			c-0.992,0-1.582,0.686-1.818,1.347c-0.094,0.235-0.141,0.565-0.141,0.897v6.655h-3.588V19.232L59.937,19.232z"/>
		<path display="inline" d="M76.529,22.467c0.119,1.486,1.582,2.195,3.258,2.195c1.229,0,2.219-0.165,3.188-0.473l0.473,2.432
			c-1.182,0.473-2.621,0.732-4.18,0.732c-3.918,0-6.16-2.289-6.16-5.901c0-2.927,1.816-6.161,5.83-6.161
			c3.729,0,5.146,2.902,5.146,5.76c0,0.613-0.072,1.156-0.119,1.416H76.529L76.529,22.467z M80.756,20.012
			c0-0.873-0.379-2.336-2.031-2.336c-1.51,0-2.123,1.369-2.219,2.336H80.756z"/>
		<path display="inline" d="M86.207,23.954c0.662,0.401,2.029,0.874,3.092,0.874c1.086,0,1.535-0.379,1.535-0.969
			s-0.354-0.873-1.699-1.321c-2.385-0.804-3.305-2.101-3.281-3.446c0-2.172,1.842-3.801,4.697-3.801
			c1.346,0,2.549,0.307,3.258,0.661l-0.639,2.479c-0.52-0.283-1.51-0.662-2.502-0.662c-0.873,0-1.369,0.354-1.369,0.945
			c0,0.542,0.449,0.826,1.865,1.32c2.195,0.756,3.117,1.865,3.139,3.564c0,2.147-1.697,3.754-5.004,3.754
			c-1.51,0-2.855-0.354-3.729-0.826L86.207,23.954z"/>
	</g>
</g>
</svg>
