<?xml version="1.0" encoding="utf-8"?>
<!-- Generator: Adobe Illustrator 16.0.0, SVG Export Plug-In . SVG Version: 6.00 Build 0)  -->
<!DOCTYPE svg PUBLIC "-//W3C//DTD SVG 1.1//EN" "http://www.w3.org/Graphics/SVG/1.1/DTD/svg11.dtd">
<svg version="1.1" id="Layer_1" xmlns="http://www.w3.org/2000/svg" xmlns:xlink="http://www.w3.org/1999/xlink" x="0px" y="0px"
	 width="44.75px" height="28px" viewBox="283.583 0 44.75 28" enable-background="new 283.583 0 44.75 28" xml:space="preserve">
<rect x="258.411" y="-39.021" display="none" fill="#262626" width="255.216" height="107.992"/>
<g>
	<path display="none" fill="#A8E00F" d="M482.675,23.786c0.117-0.001,0.82-0.021,1.082-0.021h0.005
		c0.41,0.016,1.023,0.323,1.04,0.935v2.37c-0.043,0.154,0.006,0.736-0.999,0.82c-0.696,0-1.307-0.006-1.319-0.006
		c-9.824,0.006-9.473-9.508-9.473-9.508V1.405c0-0.521,0.42-0.958,0.938-0.958h2.22c0.518,0,0.969,0.437,0.969,0.956V4.97h7.536
		c0.552,0,0.893,0.646,0.893,0.933v2.384c-0.019,0.418-0.476,0.857-0.896,0.857c-0.235,0-6.213,0.007-7.532,0.007v9.078
		C477.137,18.229,476.838,23.804,482.675,23.786"/>
	<path display="none" fill="#A8E00F" d="M460.379,26.92c0,0.52-0.45,0.958-0.968,0.958h-2.221c-0.519,0-0.937-0.438-0.937-0.958
		V14.506c0,0-0.352-9.515,9.472-9.509c0.013,0,3.522-0.006,4.22-0.006c1.005,0.085,0.956,0.666,0.999,0.821v2.369
		c-0.018,0.611-0.63,0.92-1.04,0.936H469.9c-0.263,0-3.866-0.019-3.983-0.021c-5.837-0.017-5.538,5.559-5.538,5.559V26.92
		L460.379,26.92z"/>
	<path display="none" fill="#A8E00F" d="M408.452,24.101c0.118-0.002,0.821-0.021,1.083-0.021h0.005
		c0.409,0.016,1.023,0.323,1.04,0.936v2.369c-0.044,0.154,0.006,0.735-0.999,0.818c-0.696,0-1.307-0.004-1.32-0.004
		c-9.823,0.006-9.473-9.508-9.473-9.508V1.719c0-0.521,0.421-0.958,0.938-0.958h2.22c0.519,0,0.97,0.438,0.97,0.957v3.567h7.536
		c0.551,0,0.892,0.646,0.892,0.933v2.384c-0.019,0.419-0.476,0.858-0.896,0.858c-0.235,0-6.214,0.007-7.531,0.007v9.077
		C402.916,18.543,402.616,24.117,408.452,24.101"/>
	<path display="none" fill="#A8E00F" d="M363.012,9.163l7.268-0.015c1.313,0.162,1.783,0.834,1.783,2.397v1.59
		c-0.096,1.179-0.206,2.391-2.391,2.391h-8.753v-3.938C360.953,9.295,362.094,9.225,363.012,9.163 M373.686,23.721
		c-0.038-0.003-10.274,0.014-10.274,0.014c-2.317,0-2.507-0.966-2.507-3.949v-0.121c1.349-0.002,5.438-0.006,8.816-0.006
		c4.055-0.015,6.354-2.425,6.467-6.793l-0.006-1.323c0-4.109-2.477-6.565-6.637-6.565h-4.311l-1.871,0.006
		c-4.258,0.032-6.408,2.271-6.57,6.846l-0.021,7.954c0,4.01,0.788,8.109,6.64,8.109h10.265c0.724,0,1.134-0.382,1.134-1.053v-2.179
		C374.811,24.318,374.664,23.742,373.686,23.721"/>
	<path display="none" fill="#A8E00F" d="M447.76,23.723l-2.902,0.045h-3.649c-1.883,0-2.512-0.613-2.512-2.441v-9.744
		c0.032-2.293,1.173-2.364,2.092-2.426l6.556-0.015c2.315,0,2.513,0.961,2.513,3.943l-0.004,8.213
		C449.819,23.59,448.679,23.66,447.76,23.723 M453.979,13.091c0-4.015-0.79-8.113-6.639-8.113h-6.2
		c-4.257,0.034-6.408,2.272-6.572,6.847v9.503c0,4.113,2.482,6.565,6.641,6.565h3.652V27.9h2.547
		c4.257-0.031,6.409-2.271,6.571-6.847V13.091z"/>
	<path display="none" fill="#A8E00F" d="M348.66,23.679l-2.902,0.014v0.005h-3.76c-1.891,0-2.527-0.619-2.527-2.463l-0.01-12.289
		h8.729c2.332,0,2.515,0.97,2.515,3.977l0.016,8.331C350.687,23.545,349.579,23.615,348.66,23.679 M354.88,12.928
		c0-4.048-0.792-8.181-6.689-8.181h-8.729V1.143c0-0.523-0.446-0.966-0.97-0.966h-2.234c-0.525,0-0.97,0.442-0.97,0.967v20.092
		c0,4.148,2.523,6.619,6.712,6.619h4.341h1.969c4.257-0.031,6.409-2.271,6.571-6.846v-2.99v-0.006V12.928z"/>
	<path display="none" fill="#A8E00F" d="M390.352,23.726l-7.15,0.015c-1.431-0.128-1.936-0.793-1.936-2.414v-1.59
		c0.096-1.178,0.205-2.391,2.389-2.391h8.761l0.029,3.954C392.411,23.594,391.271,23.664,390.352,23.726 M396.556,16.7v-3.612
		c0-4.01-0.789-8.111-6.64-8.111H379.65c-0.725,0-1.135,0.383-1.135,1.054V8.21c0,0.343,0.148,0.919,1.127,0.94
		c0.037,0.004,10.273-0.013,10.273-0.013c2.316,0,2.508,0.966,2.508,3.947l-0.002,0.123c-1.348,0.001-5.436,0.005-8.814,0.005
		c-4.056,0.016-6.355,2.425-6.468,6.793l0.006,1.322c0,4.109,2.478,6.564,6.636,6.564h3.661l0.011,0.012H390
		c4.257-0.033,6.408-2.271,6.572-6.848V16.7H396.556z"/>
	<path display="none" fill="#A8E00F" d="M427.604,23.227c-0.378,0.374-1.016,0.56-1.961,0.56h-8.653l0.008-12.176
		c0-1.827,0.656-2.48,2.508-2.48h6.853c0.567,0.074,0.981,0.245,1.257,0.518c0.551,0.565,0.547,1.575,0.53,2.747
		c0,0.064-0.011,7.903-0.011,8.084C428.15,21.651,428.154,22.662,427.604,23.227 M432.295,13.019c0-4.168-0.807-8.028-6.64-8.028
		h-6.149c-4.155,0-6.636,2.477-6.636,6.618l-0.019,19.734c0,0.595,0.293,0.961,0.766,0.961h2.409c0.512,0,0.959-0.449,0.959-0.957
		l0.003-3.467h8.655c5.834,0,6.639-3.861,6.639-8.029v-1.791L432.295,13.019z"/>
	<path fill="#A8E00F" d="M321.949,16.426c0-8.815-7.171-15.987-15.986-15.987c-8.814,0-15.986,7.171-15.986,15.987
		c0,4.078,1.538,7.963,4.333,10.939l0.001-0.002c0.375,0.397,1,0.418,1.399,0.043l1.724-1.622c0.396-0.374,0.416-0.997,0.045-1.396
		l0.001-0.002c-2.033-2.166-3.153-4.995-3.153-7.961c0-6.416,5.219-11.636,11.635-11.636c6.415,0,11.635,5.22,11.635,11.636
		c0,2.966-1.119,5.795-3.154,7.961l0.004,0.003c-0.369,0.399-0.349,1.022,0.048,1.395l1.724,1.622
		c0.398,0.375,1.025,0.355,1.399-0.043l-0.001-0.001C320.412,24.387,321.949,20.502,321.949,16.426"/>
	<path fill="#A8E00F" d="M327.988,16.349c0-2.178-0.326-4.326-0.971-6.388l0,0c0-0.001-0.002-0.003-0.002-0.005
		c-0.001-0.001-0.001-0.003-0.002-0.007c-0.168-0.514-0.718-0.8-1.236-0.64l-2.26,0.702c-0.521,0.162-0.813,0.715-0.652,1.238
		l-0.002,0.002c0.512,1.643,0.775,3.357,0.775,5.098c0,3.074-0.832,6.088-2.406,8.718l0.003,0.003
		c-0.276,0.468-0.124,1.072,0.343,1.354l2.03,1.217c0.469,0.281,1.075,0.129,1.358-0.34
		C326.943,23.995,327.988,20.209,327.988,16.349"/>
	<path fill="#A8E00F" d="M290.694,25.066c-1.573-2.63-2.405-5.644-2.405-8.717c0-1.74,0.262-3.455,0.775-5.098h0.001V11.25v0
		c0.161-0.522-0.131-1.076-0.652-1.239l-2.26-0.704c-0.519-0.161-1.069,0.127-1.236,0.643l-0.004-0.002
		c-0.647,2.066-0.976,4.22-0.976,6.402c0,3.858,1.046,7.646,3.023,10.95l0.003-0.002c0.282,0.465,0.887,0.616,1.355,0.335
		l2.029-1.217C290.814,26.137,290.966,25.535,290.694,25.066L290.694,25.066z"/>
	<path display="none" fill="#A8E00F" d="M488.041,23.385c-1.204,0-2.171,0.962-2.171,2.155c0,1.208,0.966,2.171,2.171,2.171
		c1.195,0,2.169-0.962,2.169-2.171C490.209,24.347,489.236,23.385,488.041,23.385 M488.041,27.131c-0.943,0-1.532-0.62-1.532-1.591
		c0-0.964,0.589-1.587,1.532-1.587c0.926,0,1.525,0.623,1.525,1.587C489.566,26.512,488.967,27.131,488.041,27.131"/>
	<path display="none" fill="#A8E00F" d="M488.202,24.582h-1v2.024h0.435v-0.818h0.342l0.467,0.818h0.498l-0.498-0.818
		c0.36-0.032,0.56-0.187,0.56-0.571C489.005,24.729,488.746,24.582,488.202,24.582 M488.21,25.47h-0.573v-0.565h0.466
		c0.203,0,0.501-0.021,0.501,0.26C488.604,25.422,488.445,25.477,488.21,25.47"/>
</g>
</svg>
