<?xml version="1.0" encoding="utf-8"?>
<!-- Generator: Adobe Illustrator 16.0.0, SVG Export Plug-In . SVG Version: 6.00 Build 0)  -->
<!DOCTYPE svg PUBLIC "-//W3C//DTD SVG 1.1//EN" "http://www.w3.org/Graphics/SVG/1.1/DTD/svg11.dtd">
<svg version="1.1" id="Layer_1" xmlns="http://www.w3.org/2000/svg" xmlns:xlink="http://www.w3.org/1999/xlink" x="0px" y="0px"
	 width="23.781px" height="27.5px" viewBox="294.156 0.281 23.781 27.5" enable-background="new 294.156 0.281 23.781 27.5"
	 xml:space="preserve">
<g>
	<g>
		<path d="M317.769,20.357c-0.639,1.416-0.945,2.049-1.769,3.299c-1.147,1.748-2.766,3.924-4.771,3.943
			c-1.782,0.016-2.239-1.16-4.658-1.146c-2.418,0.014-2.923,1.166-4.705,1.15c-2.005-0.018-3.539-1.983-4.688-3.73
			c-3.21-4.887-3.546-10.621-1.566-13.67c1.407-2.166,3.627-3.435,5.715-3.435c2.125,0,3.461,1.165,5.219,1.165
			c1.705,0,2.742-1.167,5.199-1.167c1.858,0,3.826,1.011,5.229,2.76C312.38,12.043,313.127,18.604,317.769,20.357L317.769,20.357z"
			/>
		<path d="M309.883,4.814c0.893-1.146,1.57-2.763,1.324-4.417c-1.458,0.101-3.164,1.028-4.16,2.237
			c-0.903,1.098-1.649,2.726-1.359,4.309C307.279,6.992,308.927,6.042,309.883,4.814L309.883,4.814z"/>
	</g>
	<g display="none">
		<path display="inline" d="M325.919,12.59c0,0.992-0.755,1.794-1.937,1.794c-1.133,0-1.888-0.802-1.864-1.794
			c-0.023-1.039,0.731-1.817,1.889-1.817S325.896,11.551,325.919,12.59z M322.213,27.344V15.801h3.588v11.543H322.213z"/>
		<path display="inline" d="M331.866,14.455h-4.272v-3.021h12.229v3.021h-4.344v12.889h-3.612V14.455L331.866,14.455z"/>
		<path display="inline" d="M351.223,23.637c0,1.512,0.047,2.739,0.094,3.707h-3.115l-0.166-1.629h-0.07
			c-0.449,0.708-1.534,1.889-3.611,1.889c-2.338,0-4.061-1.464-4.061-5.028v-6.774h3.611v6.208c0,1.677,0.543,2.69,1.794,2.69
			c0.991,0,1.559-0.684,1.794-1.251c0.095-0.212,0.117-0.495,0.117-0.778v-6.869h3.613V23.637z"/>
		<path display="inline" d="M354.101,19.482c0-1.439-0.048-2.668-0.094-3.682h3.115l0.165,1.581h0.071
			c0.472-0.731,1.651-1.841,3.563-1.841c2.361,0,4.132,1.558,4.132,4.957v6.846h-3.588v-6.397c0-1.487-0.52-2.502-1.817-2.502
			c-0.992,0-1.582,0.685-1.818,1.346c-0.094,0.236-0.141,0.566-0.141,0.897v6.656h-3.588L354.101,19.482L354.101,19.482z"/>
		<path display="inline" d="M370.693,22.717c0.119,1.486,1.582,2.195,3.258,2.195c1.229,0,2.219-0.165,3.188-0.472l0.472,2.431
			c-1.181,0.473-2.62,0.732-4.179,0.732c-3.918,0-6.161-2.289-6.161-5.901c0-2.927,1.818-6.161,5.831-6.161
			c3.729,0,5.146,2.903,5.146,5.76c0,0.613-0.071,1.156-0.118,1.416H370.693L370.693,22.717z M374.92,20.262
			c0-0.873-0.378-2.336-2.031-2.336c-1.51,0-2.123,1.369-2.219,2.336H374.92z"/>
		<path display="inline" d="M380.371,24.204c0.662,0.401,2.03,0.874,3.093,0.874c1.086,0,1.534-0.379,1.534-0.969
			s-0.354-0.873-1.699-1.321c-2.385-0.803-3.305-2.101-3.281-3.446c0-2.172,1.842-3.801,4.697-3.801
			c1.346,0,2.549,0.307,3.258,0.661l-0.638,2.479c-0.52-0.283-1.511-0.661-2.502-0.661c-0.874,0-1.369,0.354-1.369,0.945
			c0,0.542,0.448,0.826,1.864,1.32c2.195,0.756,3.117,1.865,3.14,3.564c0,2.148-1.699,3.754-5.004,3.754
			c-1.511,0-2.856-0.354-3.729-0.826L380.371,24.204z"/>
	</g>
</g>
</svg>
