<?xml version="1.0" encoding="utf-8"?>
<!-- Generator: Adobe Illustrator 16.0.0, SVG Export Plug-In . SVG Version: 6.00 Build 0)  -->
<!DOCTYPE svg PUBLIC "-//W3C//DTD SVG 1.1//EN" "http://www.w3.org/Graphics/SVG/1.1/DTD/svg11.dtd">
<svg version="1.1"
	 id="svg2" xmlns:dc="http://purl.org/dc/elements/1.1/" xmlns:cc="http://creativecommons.org/ns#" xmlns:rdf="http://www.w3.org/1999/02/22-rdf-syntax-ns#" xmlns:svg="http://www.w3.org/2000/svg"
	 xmlns="http://www.w3.org/2000/svg" xmlns:xlink="http://www.w3.org/1999/xlink" height="25px"
	 viewBox="252.5 0 78.938 30" xml:space="preserve">
<g id="XMLID_2_" fill="#FFFFFF">
	<path d="M276.206,18.582c-0.118-3.192-0.236-7.055-0.236-10.917h-0.118c-0.828,3.39-1.932,7.173-2.956,10.288
		l-3.232,10.365h-4.69l-2.837-10.287c-0.867-3.113-1.774-6.897-2.404-10.366h-0.079c-0.158,3.587-0.276,7.686-0.473,10.997
		l-0.473,10.09h-5.557l1.695-26.564h8l2.602,8.868c0.828,3.074,1.655,6.385,2.247,9.499h0.118c0.749-3.074,1.655-6.582,2.522-9.538
		l2.838-8.829h7.843l1.458,26.564H276.6L276.206,18.582z"/>
	<path d="M287.199,22.878c1.064,0.552,3.508,1.577,5.951,1.577c3.114,0,4.69-1.498,4.69-3.429
		c0-2.522-2.522-3.666-5.164-3.666h-2.443v-4.296h2.325c2.01-0.04,4.572-0.788,4.572-2.956c0-1.537-1.261-2.68-3.784-2.68
		c-2.089,0-4.296,0.907-5.36,1.537l-1.222-4.335c1.537-0.985,4.611-1.931,7.922-1.931c5.479,0,8.513,2.877,8.513,6.385
		c0,2.72-1.537,4.848-4.69,5.952v0.079c3.074,0.552,5.557,2.877,5.557,6.227c0,4.533-3.98,7.844-10.484,7.844
		c-3.311,0-6.109-0.867-7.607-1.813L287.199,22.878z"/>
	<path d="M314.944,2.187v15.292c0,4.572,1.734,6.897,4.809,6.897c3.152,0,4.887-2.207,4.887-6.897V2.187h5.991
		v14.898c0,8.197-4.139,12.1-11.075,12.1c-6.7,0-10.642-3.705-10.642-12.179V2.187H314.944z"/>
</g>
</svg>
