<?xml version="1.0" encoding="utf-8"?>
<!-- Generator: Adobe Illustrator 16.0.0, SVG Export Plug-In . SVG Version: 6.00 Build 0)  -->
<!DOCTYPE svg PUBLIC "-//W3C//DTD SVG 1.1//EN" "http://www.w3.org/Graphics/SVG/1.1/DTD/svg11.dtd">
<svg version="1.1" id="Layer_1" xmlns="http://www.w3.org/2000/svg" xmlns:xlink="http://www.w3.org/1999/xlink" x="0px" y="0px"
	 width="50.25px" height="28px" viewBox="280.875 0 50.25 28" enable-background="new 280.875 0 50.25 28" xml:space="preserve">
<g>
	
		<linearGradient id="SVGID_1_" gradientUnits="userSpaceOnUse" x1="1003.3125" y1="-2615.5938" x2="1003.3125" y2="-2717.1563" gradientTransform="matrix(0.1123 0 0 -0.1123 191.8124 -278.6412)">
		<stop  offset="0" style="stop-color:#F08300"/>
		<stop  offset="0.2051" style="stop-color:#EF7C00"/>
		<stop  offset="0.5378" style="stop-color:#EC6707"/>
		<stop  offset="0.9544" style="stop-color:#E74011"/>
		<stop  offset="1" style="stop-color:#E63B11"/>
	</linearGradient>
	<polygon fill="url(#SVGID_1_)" points="304.486,20.793 304.486,20.793 304.486,20.795 	"/>
	
		<linearGradient id="SVGID_2_" gradientUnits="userSpaceOnUse" x1="979.5586" y1="-2482.8843" x2="979.5586" y2="-2671.9675" gradientTransform="matrix(0.1123 0 0 -0.1123 191.8124 -278.6412)">
		<stop  offset="0" style="stop-color:#F08300"/>
		<stop  offset="0.2051" style="stop-color:#EF7C00"/>
		<stop  offset="0.5378" style="stop-color:#EC6707"/>
		<stop  offset="0.9544" style="stop-color:#E74011"/>
		<stop  offset="1" style="stop-color:#E63B11"/>
	</linearGradient>
	<path fill="url(#SVGID_2_)" d="M302.671,15.804l-0.29-10.44c-0.007-0.322-0.261-0.576-0.579-0.576
		c-0.318,0-0.573,0.253-0.579,0.577l-0.259,10.438l0.259,5.023c0.006,0.32,0.26,0.572,0.579,0.572c0.317,0,0.572-0.252,0.579-0.576
		v0.004L302.671,15.804z"/>
	
		<linearGradient id="SVGID_3_" gradientUnits="userSpaceOnUse" x1="961.3545" y1="-2482.8843" x2="961.3544" y2="-2671.9678" gradientTransform="matrix(0.1123 0 0 -0.1123 191.8124 -278.6412)">
		<stop  offset="0" style="stop-color:#F08300"/>
		<stop  offset="0.2051" style="stop-color:#EF7C00"/>
		<stop  offset="0.5378" style="stop-color:#EC6707"/>
		<stop  offset="0.9544" style="stop-color:#E74011"/>
		<stop  offset="1" style="stop-color:#E63B11"/>
	</linearGradient>
	<path fill="url(#SVGID_3_)" d="M300.611,15.803l-0.318-10.834c-0.008-0.299-0.244-0.534-0.537-0.534
		c-0.294,0-0.531,0.234-0.538,0.534l-0.283,10.834l0.284,5.055c0.007,0.297,0.243,0.531,0.537,0.531
		c0.293,0,0.529-0.234,0.537-0.533v0.003L300.611,15.803z"/>
	
		<linearGradient id="SVGID_4_" gradientUnits="userSpaceOnUse" x1="1003.3125" y1="-2572.5942" x2="1003.3125" y2="-2760.0942" gradientTransform="matrix(0.1123 0 0 -0.1123 191.8124 -278.6412)">
		<stop  offset="0" style="stop-color:#F08300"/>
		<stop  offset="0.2051" style="stop-color:#EF7C00"/>
		<stop  offset="0.5378" style="stop-color:#EC6707"/>
		<stop  offset="0.9544" style="stop-color:#E74011"/>
		<stop  offset="1" style="stop-color:#E63B11"/>
	</linearGradient>
	<polygon fill="url(#SVGID_4_)" points="304.486,20.792 304.486,20.791 304.486,20.791 304.486,20.793 	"/>
	
		<linearGradient id="SVGID_5_" gradientUnits="userSpaceOnUse" x1="1003.3125" y1="-2624.7061" x2="1003.3125" y2="-2708.0393" gradientTransform="matrix(0.1123 0 0 -0.1123 191.8124 -278.6412)">
		<stop  offset="0" style="stop-color:#F08300"/>
		<stop  offset="0.2051" style="stop-color:#EF7C00"/>
		<stop  offset="0.5378" style="stop-color:#EC6707"/>
		<stop  offset="0.9544" style="stop-color:#E74011"/>
		<stop  offset="1" style="stop-color:#E63B11"/>
	</linearGradient>
	<polygon fill="url(#SVGID_5_)" points="304.486,20.793 304.486,20.793 304.486,20.795 	"/>
	
		<linearGradient id="SVGID_6_" gradientUnits="userSpaceOnUse" x1="929.1992" y1="-2482.4722" x2="929.1992" y2="-2671.979" gradientTransform="matrix(0.1123 0 0 -0.1123 191.8124 -278.6412)">
		<stop  offset="0" style="stop-color:#F08300"/>
		<stop  offset="0.2051" style="stop-color:#EF7C00"/>
		<stop  offset="0.5378" style="stop-color:#EC6707"/>
		<stop  offset="0.9544" style="stop-color:#E74011"/>
		<stop  offset="1" style="stop-color:#E63B11"/>
	</linearGradient>
	<polygon fill="url(#SVGID_6_)" points="296.163,20.934 296.163,20.935 296.163,20.938 	"/>
	
		<linearGradient id="SVGID_7_" gradientUnits="userSpaceOnUse" x1="925.3516" y1="-2482.8921" x2="925.3516" y2="-2671.9756" gradientTransform="matrix(0.1123 0 0 -0.1123 191.8124 -278.6412)">
		<stop  offset="0" style="stop-color:#F08300"/>
		<stop  offset="0.2051" style="stop-color:#EF7C00"/>
		<stop  offset="0.5378" style="stop-color:#EC6707"/>
		<stop  offset="0.9544" style="stop-color:#E74011"/>
		<stop  offset="1" style="stop-color:#E63B11"/>
	</linearGradient>
	<path fill="url(#SVGID_7_)" d="M296.163,5.046c-0.01-0.253-0.209-0.451-0.454-0.451c-0.246,0-0.445,0.198-0.454,0.451
		c0,0-0.333,10.755-0.333,10.755l0.333,5.136c0.009,0.25,0.208,0.448,0.454,0.448c0.245,0,0.444-0.197,0.454-0.45l0.375-5.134
		L296.163,5.046z"/>
	
		<linearGradient id="SVGID_8_" gradientUnits="userSpaceOnUse" x1="947.5156" y1="-2420.8301" x2="947.5156" y2="-2670.8301" gradientTransform="matrix(0.1123 0 0 -0.1123 191.8124 -278.6412)">
		<stop  offset="0" style="stop-color:#F08300"/>
		<stop  offset="0.2051" style="stop-color:#EF7C00"/>
		<stop  offset="0.5378" style="stop-color:#EC6707"/>
		<stop  offset="0.9544" style="stop-color:#E74011"/>
		<stop  offset="1" style="stop-color:#E63B11"/>
	</linearGradient>
	<polygon fill="url(#SVGID_8_)" points="298.22,20.902 298.22,20.902 298.22,20.905 	"/>
	
		<linearGradient id="SVGID_9_" gradientUnits="userSpaceOnUse" x1="943.2813" y1="-2482.8823" x2="943.2813" y2="-2671.9766" gradientTransform="matrix(0.1123 0 0 -0.1123 191.8124 -278.6412)">
		<stop  offset="0" style="stop-color:#F08300"/>
		<stop  offset="0.2051" style="stop-color:#EF7C00"/>
		<stop  offset="0.5378" style="stop-color:#EC6707"/>
		<stop  offset="0.9544" style="stop-color:#E74011"/>
		<stop  offset="1" style="stop-color:#E63B11"/>
	</linearGradient>
	<path fill="url(#SVGID_9_)" d="M298.22,4.684c-0.009-0.276-0.226-0.493-0.495-0.493c-0.27,0-0.488,0.216-0.496,0.493l-0.308,11.118
		l0.309,5.103c0.007,0.273,0.225,0.49,0.495,0.49c0.269,0,0.486-0.217,0.495-0.492l0.347-5.1L298.22,4.684z"/>
	
		<linearGradient id="SVGID_10_" gradientUnits="userSpaceOnUse" x1="855.0391" y1="-2482.8843" x2="855.0391" y2="-2671.9683" gradientTransform="matrix(0.1123 0 0 -0.1123 191.8124 -278.6412)">
		<stop  offset="0" style="stop-color:#F08300"/>
		<stop  offset="0.2051" style="stop-color:#EF7C00"/>
		<stop  offset="0.5378" style="stop-color:#EC6707"/>
		<stop  offset="0.9544" style="stop-color:#E74011"/>
		<stop  offset="1" style="stop-color:#E63B11"/>
	</linearGradient>
	<path fill="url(#SVGID_10_)" d="M287.806,21.257c0.149,0,0.272-0.121,0.286-0.281l0.49-5.179l-0.49-5.354
		c-0.014-0.16-0.137-0.281-0.286-0.281c-0.152,0-0.275,0.121-0.287,0.282l-0.432,5.354l0.432,5.179
		C287.53,21.136,287.654,21.257,287.806,21.257z"/>
	
		<linearGradient id="SVGID_11_" gradientUnits="userSpaceOnUse" x1="997.9063" y1="-2482.8931" x2="997.9063" y2="-2671.9688" gradientTransform="matrix(0.1123 0 0 -0.1123 191.8124 -278.6412)">
		<stop  offset="0" style="stop-color:#F08300"/>
		<stop  offset="0.2051" style="stop-color:#EF7C00"/>
		<stop  offset="0.5378" style="stop-color:#EC6707"/>
		<stop  offset="0.9544" style="stop-color:#E74011"/>
		<stop  offset="1" style="stop-color:#E63B11"/>
	</linearGradient>
	<path fill="url(#SVGID_11_)" d="M304.747,15.805l-0.261-12.422c-0.003-0.213-0.114-0.401-0.278-0.513
		c-0.099-0.066-0.217-0.105-0.343-0.105c-0.123,0-0.237,0.037-0.334,0.101c-0.169,0.11-0.283,0.301-0.286,0.518L303.242,3.5
		l-0.232,12.301c0,0.008,0.234,4.993,0.234,4.993c0,0.007,0.001,0.015,0.001,0.021c0.007,0.141,0.06,0.269,0.145,0.369
		c0.114,0.137,0.285,0.225,0.475,0.225c0.168,0,0.322-0.068,0.434-0.181s0.183-0.267,0.187-0.437l0.026-0.494L304.747,15.805z"/>
	
		<linearGradient id="SVGID_12_" gradientUnits="userSpaceOnUse" x1="872.4063" y1="-2482.8994" x2="872.4063" y2="-2671.9685" gradientTransform="matrix(0.1123 0 0 -0.1123 191.8124 -278.6412)">
		<stop  offset="0" style="stop-color:#F08300"/>
		<stop  offset="0.2051" style="stop-color:#EF7C00"/>
		<stop  offset="0.5378" style="stop-color:#EC6707"/>
		<stop  offset="0.9544" style="stop-color:#E74011"/>
		<stop  offset="1" style="stop-color:#E63B11"/>
	</linearGradient>
	<path fill="url(#SVGID_12_)" d="M290.086,10.829c-0.013-0.183-0.154-0.322-0.328-0.322c-0.176,0-0.317,0.14-0.329,0.325
		l-0.407,4.965l0.407,5.222c0.011,0.185,0.152,0.323,0.329,0.323c0.174,0,0.315-0.139,0.328-0.324l0.461-5.221L290.086,10.829z"/>
	
		<linearGradient id="SVGID_13_" gradientUnits="userSpaceOnUse" x1="889.918" y1="-2482.8843" x2="889.918" y2="-2671.9683" gradientTransform="matrix(0.1123 0 0 -0.1123 191.8124 -278.6412)">
		<stop  offset="0" style="stop-color:#F08300"/>
		<stop  offset="0.2051" style="stop-color:#EF7C00"/>
		<stop  offset="0.5378" style="stop-color:#EC6707"/>
		<stop  offset="0.9544" style="stop-color:#E74011"/>
		<stop  offset="1" style="stop-color:#E63B11"/>
	</linearGradient>
	<path fill="url(#SVGID_13_)" d="M291.726,7.354c-0.198,0-0.36,0.161-0.37,0.367l-0.382,8.079l0.382,5.221
		c0.01,0.205,0.172,0.365,0.37,0.365c0.196,0,0.358-0.16,0.37-0.365v0.001l0.433-5.222l-0.433-8.079
		C292.084,7.514,291.922,7.354,291.726,7.354z"/>
	
		<linearGradient id="SVGID_14_" gradientUnits="userSpaceOnUse" x1="907.293" y1="-2482.8818" x2="907.293" y2="-2671.9763" gradientTransform="matrix(0.1123 0 0 -0.1123 191.8124 -278.6412)">
		<stop  offset="0" style="stop-color:#F08300"/>
		<stop  offset="0.2051" style="stop-color:#EF7C00"/>
		<stop  offset="0.5378" style="stop-color:#EC6707"/>
		<stop  offset="0.9544" style="stop-color:#E74011"/>
		<stop  offset="1" style="stop-color:#E63B11"/>
	</linearGradient>
	<path fill="url(#SVGID_14_)" d="M294.091,21.014v0.003l0.404-5.189L294.091,5.9c-0.01-0.229-0.191-0.408-0.412-0.408
		c-0.222,0-0.402,0.179-0.412,0.408c0,0-0.357,9.927-0.357,9.927l0.358,5.188c0.009,0.227,0.19,0.406,0.412,0.406
		C293.899,21.422,294.081,21.242,294.091,21.014z"/>
	
		<linearGradient id="SVGID_15_" gradientUnits="userSpaceOnUse" x1="875.0859" y1="-2598.0601" x2="875.0859" y2="-2723.0601" gradientTransform="matrix(0.1123 0 0 -0.1123 191.8124 -278.6412)">
		<stop  offset="0" style="stop-color:#F08300"/>
		<stop  offset="0.2051" style="stop-color:#EF7C00"/>
		<stop  offset="0.5378" style="stop-color:#EC6707"/>
		<stop  offset="0.9544" style="stop-color:#E74011"/>
		<stop  offset="1" style="stop-color:#E63B11"/>
	</linearGradient>
	<polygon fill="url(#SVGID_15_)" points="290.086,21.018 290.086,21.018 290.086,21.02 	"/>
	
		<linearGradient id="SVGID_16_" gradientUnits="userSpaceOnUse" x1="1016.1719" y1="-2482.8843" x2="1016.1719" y2="-2671.969" gradientTransform="matrix(0.1123 0 0 -0.1123 191.8124 -278.6412)">
		<stop  offset="0" style="stop-color:#F08300"/>
		<stop  offset="0.2051" style="stop-color:#EF7C00"/>
		<stop  offset="0.5378" style="stop-color:#EC6707"/>
		<stop  offset="0.9544" style="stop-color:#E74011"/>
		<stop  offset="1" style="stop-color:#E63B11"/>
	</linearGradient>
	<path fill="url(#SVGID_16_)" d="M306.256,1.692c-0.099-0.06-0.214-0.095-0.337-0.095c-0.158,0-0.304,0.057-0.418,0.151
		c-0.147,0.122-0.242,0.305-0.245,0.51l-0.001,0.068l-0.27,13.481l0.138,2.491l0.134,2.425c0.005,0.359,0.302,0.655,0.663,0.655
		c0.36,0,0.657-0.296,0.661-0.66v0.005l0,0l0.295-4.916v-0.001L306.58,2.256C306.578,2.017,306.447,1.808,306.256,1.692z"/>
	
		<linearGradient id="SVGID_17_" gradientUnits="userSpaceOnUse" x1="804.625" y1="-2482.8843" x2="804.625" y2="-2671.9685" gradientTransform="matrix(0.1123 0 0 -0.1123 191.8124 -278.6412)">
		<stop  offset="0" style="stop-color:#F08300"/>
		<stop  offset="0.2051" style="stop-color:#EF7C00"/>
		<stop  offset="0.5378" style="stop-color:#EC6707"/>
		<stop  offset="0.9544" style="stop-color:#E74011"/>
		<stop  offset="1" style="stop-color:#E63B11"/>
	</linearGradient>
	<path fill="url(#SVGID_17_)" d="M282.14,18.655c0.099,0,0.179-0.077,0.195-0.19l0.424-2.67l-0.424-2.716
		c-0.016-0.112-0.096-0.19-0.195-0.19c-0.102,0-0.183,0.079-0.196,0.191l-0.357,2.715l0.357,2.67
		C281.958,18.576,282.038,18.655,282.14,18.655z"/>
	
		<linearGradient id="SVGID_18_" gradientUnits="userSpaceOnUse" x1="820.7227" y1="-2482.8843" x2="820.7227" y2="-2671.9702" gradientTransform="matrix(0.1123 0 0 -0.1123 191.8124 -278.6412)">
		<stop  offset="0" style="stop-color:#F08300"/>
		<stop  offset="0.2051" style="stop-color:#EF7C00"/>
		<stop  offset="0.5378" style="stop-color:#EC6707"/>
		<stop  offset="0.9544" style="stop-color:#E74011"/>
		<stop  offset="1" style="stop-color:#E63B11"/>
	</linearGradient>
	<path fill="url(#SVGID_18_)" d="M283.948,20.287c0.103,0,0.187-0.081,0.203-0.197l0.547-4.295l-0.547-4.391
		c-0.017-0.117-0.1-0.197-0.203-0.197c-0.104,0-0.189,0.083-0.203,0.198c0,0-0.481,4.391-0.481,4.391l0.481,4.294
		C283.758,20.204,283.844,20.287,283.948,20.287z"/>
	
		<linearGradient id="SVGID_19_" gradientUnits="userSpaceOnUse" x1="837.8086" y1="-2482.8843" x2="837.8086" y2="-2671.9678" gradientTransform="matrix(0.1123 0 0 -0.1123 191.8124 -278.6412)">
		<stop  offset="0" style="stop-color:#F08300"/>
		<stop  offset="0.2051" style="stop-color:#EF7C00"/>
		<stop  offset="0.5378" style="stop-color:#EC6707"/>
		<stop  offset="0.9544" style="stop-color:#E74011"/>
		<stop  offset="1" style="stop-color:#E63B11"/>
	</linearGradient>
	<path fill="url(#SVGID_19_)" d="M285.869,21.056c0.127,0,0.23-0.101,0.245-0.239l0.519-5.021l-0.518-5.209
		c-0.015-0.139-0.118-0.24-0.245-0.24c-0.129,0-0.232,0.101-0.245,0.24c0,0-0.457,5.209-0.457,5.209l0.457,5.02
		C285.637,20.955,285.74,21.056,285.869,21.056z"/>
	
		<linearGradient id="SVGID_20_" gradientUnits="userSpaceOnUse" x1="1130.9141" y1="-2482.8833" x2="1130.9141" y2="-2671.7026" gradientTransform="matrix(0.1123 0 0 -0.1123 191.8124 -278.6412)">
		<stop  offset="0" style="stop-color:#F39200"/>
		<stop  offset="0" style="stop-color:#F28B00"/>
		<stop  offset="0" style="stop-color:#F08300"/>
		<stop  offset="0.2058" style="stop-color:#EF7C00"/>
		<stop  offset="0.5413" style="stop-color:#EC6608"/>
		<stop  offset="0.9627" style="stop-color:#E73F11"/>
		<stop  offset="1" style="stop-color:#E63B11"/>
	</linearGradient>
	<path fill="url(#SVGID_20_)" d="M324.469,9.393c-0.824,0-1.61,0.167-2.326,0.467c-0.479-5.42-5.023-9.672-10.568-9.672
		c-1.357,0-2.68,0.267-3.848,0.718c-0.453,0.176-0.574,0.356-0.578,0.708v19.087c0.004,0.369,0.29,0.654,0.649,0.69
		c0.015,0.002,16.671,0,16.671,0c3.321,0,6.014-2.662,6.014-5.984C330.482,12.085,327.79,9.393,324.469,9.393z"/>
	<path fill="#E63B11" d="M286.388,25.011c-0.706-0.166-0.896-0.255-0.896-0.534c0-0.196,0.158-0.4,0.635-0.4
		c0.407,0,0.725,0.166,1.01,0.458l0.642-0.622c-0.419-0.438-0.927-0.699-1.62-0.699c-0.877,0-1.588,0.496-1.588,1.303
		c0,0.877,0.572,1.137,1.391,1.327c0.839,0.19,0.991,0.318,0.991,0.604c0,0.336-0.249,0.482-0.775,0.482
		c-0.426,0-0.825-0.146-1.137-0.509l-0.642,0.571c0.337,0.496,0.985,0.808,1.728,0.808c1.213,0,1.747-0.571,1.747-1.417
		C287.875,25.417,287.093,25.176,286.388,25.011z M290.48,23.213c-1.213,0-1.931,0.939-1.931,2.293c0,1.354,0.718,2.293,1.931,2.293
		s1.931-0.938,1.931-2.293C292.411,24.152,291.693,23.213,290.48,23.213z M290.48,26.916c-0.718,0-1.017-0.615-1.017-1.41
		c0-0.794,0.299-1.409,1.017-1.409c0.718,0,1.016,0.615,1.016,1.409C291.496,26.301,291.198,26.916,290.48,26.916z M296,25.779
		c0,0.711-0.349,1.15-0.914,1.15c-0.565,0-0.909-0.451-0.909-1.162v-2.484h-0.889v2.496c0,1.296,0.725,2.02,1.798,2.02
		c1.13,0,1.804-0.743,1.804-2.031v-2.484H296V25.779z M300.726,25.164c0,0.247,0.013,0.807,0.013,0.972
		c-0.057-0.114-0.204-0.337-0.311-0.503l-1.576-2.35H298v4.446h0.877v-1.956c0-0.248-0.013-0.807-0.013-0.973
		c0.058,0.115,0.204,0.337,0.312,0.502l1.633,2.427h0.794v-4.446h-0.877V25.164z M304.137,23.283h-1.391v4.446h1.328
		c1.143,0,2.274-0.661,2.274-2.224C306.348,23.88,305.408,23.283,304.137,23.283z M304.074,26.865h-0.438v-2.719h0.471
		c0.94,0,1.328,0.451,1.328,1.359C305.434,26.32,305.007,26.865,304.074,26.865z M309.099,24.097c0.399,0,0.654,0.178,0.813,0.481
		l0.824-0.381c-0.279-0.578-0.787-0.984-1.625-0.984c-1.162,0-1.976,0.939-1.976,2.293c0,1.404,0.78,2.293,1.944,2.293
		c0.807,0,1.34-0.375,1.645-1.004l-0.75-0.445c-0.234,0.395-0.47,0.566-0.87,0.566c-0.667,0-1.056-0.609-1.056-1.41
		C308.049,24.682,308.432,24.097,309.099,24.097z M312.396,23.283h-0.889v4.446h2.674v-0.876h-1.785V23.283z M316.523,23.213
		c-1.214,0-1.932,0.939-1.932,2.293c0,1.354,0.718,2.293,1.932,2.293c1.213,0,1.932-0.938,1.932-2.293
		C318.455,24.152,317.736,23.213,316.523,23.213z M316.523,26.916c-0.719,0-1.018-0.615-1.018-1.41c0-0.794,0.299-1.409,1.018-1.409
		c0.717,0,1.016,0.615,1.016,1.409C317.539,26.301,317.24,26.916,316.523,26.916z M322.043,25.779c0,0.711-0.348,1.15-0.914,1.15
		c-0.565,0-0.908-0.451-0.908-1.162v-2.484h-0.89v2.496c0,1.296,0.725,2.02,1.798,2.02c1.131,0,1.805-0.743,1.805-2.031v-2.484
		h-0.891V25.779L322.043,25.779z M325.436,23.283h-1.391v4.446h1.326c1.146,0,2.275-0.661,2.275-2.224
		C327.646,23.88,326.707,23.283,325.436,23.283z M325.371,26.865h-0.438v-2.719h0.471c0.939,0,1.326,0.451,1.326,1.359
		C326.73,26.32,326.306,26.865,325.371,26.865z"/>
</g>
</svg>
