<?xml version="1.0" encoding="utf-8"?>
<!-- Generator: Adobe Illustrator 16.0.0, SVG Export Plug-In . SVG Version: 6.00 Build 0)  -->
<!DOCTYPE svg PUBLIC "-//W3C//DTD SVG 1.1//EN" "http://www.w3.org/Graphics/SVG/1.1/DTD/svg11.dtd">
<svg version="1.1" id="YouTube_Icon" xmlns="http://www.w3.org/2000/svg" xmlns:xlink="http://www.w3.org/1999/xlink" x="0px"
	 y="0px" width="40.041px" height="28px" viewBox="285.979 0 40.041 28" enable-background="new 285.979 0 40.041 28"
	 xml:space="preserve">
<path id="Triangle" fill="#FFFFFF" d="M301.922,19.146l10.718-5.553L301.922,8V19.146z"/>
<path id="The_Sharpness" opacity="0.12" fill="#420000" enable-background="new    " d="M301.922,8l9.4,6.277l1.318-0.685L301.922,8
	z"/>
<g id="Lozenge">
	<g>
		
			<linearGradient id="SVGID_1_" gradientUnits="userSpaceOnUse" x1="2817.6328" y1="-7392.9224" x2="2817.6328" y2="-8111.3442" gradientTransform="matrix(0.0388 0 0 -0.0388 196.5973 -287.0533)">
			<stop  offset="0" style="stop-color:#E52D27"/>
			<stop  offset="1" style="stop-color:#BF171D"/>
		</linearGradient>
		<path fill="url(#SVGID_1_)" d="M325.457,6.069c0,0-0.387-2.734-1.576-3.938c-1.509-1.58-3.199-1.588-3.975-1.68
			c-5.552-0.401-13.878-0.401-13.878-0.401h-0.017c0,0-8.327,0-13.877,0.401c-0.775,0.092-2.466,0.1-3.975,1.68
			c-1.189,1.204-1.577,3.938-1.577,3.938s-0.396,3.21-0.396,6.42v3.009c0,3.211,0.396,6.421,0.396,6.421s0.387,2.733,1.577,3.938
			c1.509,1.579,3.491,1.53,4.374,1.695c3.174,0.304,13.487,0.398,13.487,0.398s8.335-0.013,13.887-0.413
			c0.775-0.094,2.466-0.102,3.975-1.681c1.189-1.204,1.576-3.938,1.576-3.938s0.396-3.21,0.396-6.421v-3.009
			C325.854,9.279,325.457,6.069,325.457,6.069z M301.924,19.146L301.922,8l10.718,5.592L301.924,19.146z"/>
	</g>
</g>
</svg>
